\begin{tabular}[b]{| l | r r | r r | r r |} \hline 
Vec size & \multicolumn{2}{c |}{$10^4$ - $10^5$} & \multicolumn{2}{c |}{$10^5$ - $10^7$} & \multicolumn{2}{c |}{$10^7$ - $10^8$} \\ \hline 
Operation & latency & bandwidth & latency & bandwidth & latency & bandwidth \\ \hline 
VecDot & 3 & 3,933 & -119 & 2,509 & -356 & 2,417 \\ 
VecAXPY & 1 & 5,573 & 79 & 3,538 & -525 & 3,430 \\ 
VecSet & -1 & 7,639 & -316 & 2,784 & -2,508 & 2,389 \\ 
VecCopy & -0 & 7,058 & -233 & 3,273 & -1,093 & 3,154 \\ 
\hline \end{tabular}